{
	"count": {
		"value": "999",
		"type": "number"
	},
	"caption": {
		"value": "Enter a custom caption",
		"type": "text"
	},
	"captionColor": {
		"type": "color",
		"value": "#000000"
	},
	"countColor": {
		"type": "color",
		"value": "#F5C13C"
	}
}
